[gd_scene load_steps=3 format=3 uid="uid://lo806ilrhikr"]

[ext_resource type="Script" path="res://GUI.gd" id="1_q2y1x"]
[ext_resource type="Texture2D" uid="uid://dq5qynmht4t8b" path="res://Assets/Treasure Hunters/Pirate Treasure/Sprites/Gold Coin/01.png" id="2_rwv2x"]

[node name="GUI" type="CanvasLayer"]
script = ExtResource("1_q2y1x")

[node name="HBoxContainer" type="HBoxContainer" parent="."]
offset_left = -13.0
offset_top = 16.0
offset_right = 39.0
offset_bottom = 56.0
alignment = 1

[node name="TextureRect" type="TextureRect" parent="HBoxContainer"]
layout_mode = 2
texture = ExtResource("2_rwv2x")
expand_mode = 2
stretch_mode = 3

[node name="Label" type="Label" parent="HBoxContainer"]
layout_mode = 2
theme_override_font_sizes/font_size = 13
text = "0"
vertical_alignment = 1

[node name="TextureProgressBar" type="TextureProgressBar" parent="."]
offset_right = 40.0
offset_bottom = 40.0
